{"total":150,
"rows":[

{
	"id":"#",
	"edit":"-",
	"delete":"--",
	"codigo":"Codigo de inventario",
	"codigo_activo":"Codigo del activo",
	"nombre":"Nombre",
	"marca":"Marca",
	"modelo":"Modelo",
	"notificado":"Notificado por",
	"fecha":"Fecha"

}

]}